# vtk DataFile Version 3.0
vtk output
ASCII
DATASET POLYDATA
POINTS 578 float
175.318 270.732 -5.14072 
175.071 270.345 -5.03187 
174.745 270.215 -4.81595 
174.617 271.294 -4.5198 
174.587 271.256 -4.39875 
174.565 271.262 -4.26492 
174.572 271.085 -4.27004 
174.745 270.215 -4.81595 
174.533 269.917 -4.88297 
174.322 269.736 -4.81772 
174.285 269.664 -4.75749 
174.745 270.215 -4.81595 
174.644 270.524 -4.41042 
174.587 270.749 -4.27864 
174.577 270.834 -4.28001 
174.572 271.085 -4.27004 
174.572 271.085 -4.27004 
174.578 271.819 -4.22549 
174.579 271.869 -4.22275 
174.579 271.876 -4.22227 
174.579 271.877 -4.22221 
174.579 271.877 -4.2222 
174.285 269.664 -4.75749 
173.853 270.14 -4.51378 
173.59 270.401 -4.91066 
173.577 270.451 -5.09681 
173.577 270.549 -5.25396 
174.285 269.664 -4.75749 
174.631 269.139 -4.9027 
174.75 268.844 -4.995 
175.359 269.032 -5.22598 
178.356 275.811 -6.39342 
178.791 276.303 -6.26227 
178.959 276.514 -6.30869 
178.356 275.811 -6.39342 
178.042 275.764 -7.00441 
177.922 275.732 -7.4319 
177.899 275.734 -7.61729 
178.959 276.514 -6.30869 
179.515 275.631 -6.22678 
179.647 275.455 -6.22404 
178.959 276.514 -6.30869 
178.993 277.066 -6.39429 
179.246 277.449 -6.44385 
179.694 277.896 -6.53552 
179.694 277.896 -6.53552 
179.708 278.537 -6.46681 
179.859 278.993 -6.4651 
179.876 279.234 -6.46321 
179.694 277.896 -6.53552 
180.361 277.458 -6.7979 
180.592 277.406 -6.99902 
180.733 277.343 -7.26514 
179.876 279.234 -6.46321 
179.259 279.471 -6.7304 
178.9 279.502 -6.72268 
181.274 280.813 -6.91991 
181.348 281.187 -6.16617 
180.85 280.964 -5.80743 
180.493 281.013 -5.62274 
183.594 282.647 -7.76634 
183.429 283.105 -7.94106 
183.503 283.491 -7.97622 
183.534 283.679 -7.9239 
183.564 283.846 -7.71114 
183.583 284.081 -7.72254 
183.594 282.647 -7.76634 
184.115 282.129 -7.70942 
184.764 282.115 -7.7431 
183.583 284.081 -7.72254 
183.559 284.121 -7.73984 
183.548 284.312 -7.63014 
183.731 284.979 -7.82505 
183.583 284.081 -7.72254 
184.042 285.343 -7.58155 
183.731 284.979 -7.82505 
183.731 284.979 -7.82505 
185.254 285.289 -8.00502 
185.757 285.479 -8.23378 
183.731 284.979 -7.82505 
181.892 285.189 -7.69925 
181.218 286.054 -7.67011 
180.936 286.306 -7.60932 
185.757 285.479 -8.23378 
186.522 284.3 -8.47119 
187.317 284.311 -8.52472 
180.936 286.306 -7.60932 
180.04 285.497 -6.69991 
179.807 285.509 -6.72227 
180.936 286.306 -7.60932 
180.797 286.612 -7.66011 
180.525 287.434 -8.66522 
180.565 288.985 -8.4345 
180.663 289.651 -8.5593 
180.781 290.192 -8.76848 
181.011 291.33 -9.03253 
187.317 284.311 -8.52472 
188.001 285.604 -8.69758 
188.734 285.593 -8.78542 
188.847 285.541 -8.89404 
188.572 283.904 -8.99271 
187.317 284.311 -8.52472 
187.91 283.79 -8.52783 
188.572 283.904 -8.99271 
181.011 291.33 -9.03253 
181.657 292.018 -8.99013 
181.809 292.445 -8.90957 
188.572 283.904 -8.99271 
189.937 286.251 -9.76965 
190.044 286.351 -9.80679 
190.133 286.423 -9.85359 
190.295 286.61 -9.95742 
190.463 286.565 -9.80886 
188.572 283.904 -8.99271 
188.775 282.93 -9.27255 
189.198 282.619 -9.6011 
181.809 292.445 -8.90957 
181.36 292.713 -8.01225 
181.25 292.949 -7.80373 
181.127 293.033 -7.76497 
181.809 292.445 -8.90957 
182.277 292.795 -9.37809 
182.52 293.344 -9.60833 
182.69 293.753 -9.59703 
182.912 294.066 -9.47086 
189.198 282.619 -9.6011 
186.489 282.07 -8.39208 
185.972 281.77 -8.53847 
183.702 291.568 -8.45067 
182.978 291.504 -9.27635 
182.85 291.504 -9.22175 
182.843 291.504 -9.2227 
182.84 291.504 -9.22226 
182.839 291.504 -9.22225 
182.839 291.504 -9.22221 
182.838 291.504 -9.22221 
179.276 293.89 -9.08723 
179.017 293.754 -8.88596 
178.382 293.701 -8.934 
178.053 293.57 -8.96946 
177.879 293.469 -9.00472 
181.127 293.033 -7.76497 
181.598 293.674 -8.12355 
181.773 293.854 -8.25508 
182.396 294.164 -8.38567 
182.912 294.066 -9.47086 
182.546 294.117 -8.65741 
182.396 294.164 -8.38567 
182.912 294.066 -9.47086 
183.54 294.034 -9.15802 
183.7 294.113 -9.09134 
177.879 293.469 -9.00472 
177.629 293.485 -8.63304 
177.262 293.477 -8.63646 
177.879 293.469 -9.00472 
178.067 293.257 -9.81035 
178.072 293.026 -10.0461 
178.078 292.996 -10.4762 
178.079 293.004 -10.6478 
178.079 293.004 -10.6582 
178.079 293.004 -10.659 
182.396 294.164 -8.38567 
182.883 294.535 -8.23887 
183.387 294.495 -8.22199 
183.573 294.504 -8.22221 
183.574 294.504 -8.2222 
183.7 294.113 -9.09134 
183.975 294.058 -9.40194 
184.097 294.382 -9.75295 
184.076 294.882 -9.71894 
183.7 294.113 -9.09134 
183.572 294.263 -8.67049 
183.578 294.828 -8.72296 
193.094 280.513 -9.75095 
193.809 279.561 -10.144 
194.417 279.476 -10.4066 
193.094 280.513 -9.75095 
194.395 281.768 -9.19658 
194.949 281.541 -9.20483 
195.294 281.504 -9.22382 
177.262 293.477 -8.63646 
177.04 294.05 -9.25327 
177.08 294.003 -9.52751 
177.262 293.477 -8.63646 
176.922 293.288 -8.44621 
176.591 293.255 -8.36848 
175.641 292.878 -8.68062 
180.156 290.017 -1.76636 
180.523 289.595 -1.70924 
180.623 289.462 -1.63326 
180.156 290.017 -1.76636 
180.084 289.948 -1.4404 
180.09 289.703 -1.1473 
194.417 279.476 -10.4066 
192.609 278.135 -9.77223 
192.521 277.978 -9.74967 
194.417 279.476 -10.4066 
195.04 280.513 -11.2071 
195.455 280.516 -11.21 
195.757 280.657 -11.2212 
184.96 293.628 -8.62399 
185.022 294 -7.81562 
185.074 294.001 -7.73512 
185.079 294.004 -7.72083 
184.96 293.628 -8.62399 
184.983 294.235 -8.7228 
184.746 294.674 -8.7522 
175.641 292.878 -8.68062 
174.456 293.235 -8.53789 
174.212 293.382 -8.66609 
175.641 292.878 -8.68062 
176.08 291.886 -9.28749 
176.126 291.599 -9.59966 
176.239 291.315 -9.79788 
176.338 291.13 -9.96259 
176.377 290.747 -10.2244 
176.58 290.284 -10.6577 
195.145 282 -8.36471 
195.489 281.977 -8.20783 
195.915 282.003 -8.22313 
195.145 282 -8.36471 
195.076 281.995 -8.86095 
195.079 282.004 -9.0982 
195.079 282.004 -9.10528 
195.079 282.004 -9.10555 
174.212 293.382 -8.66609 
174.609 293.928 -7.74645 
174.563 294.077 -7.73097 
174.57 294.146 -7.73025 
174.57 294.193 -7.7289 
174.572 294.236 -7.72792 
174.572 294.272 -7.72699 
174.573 294.305 -7.72622 
174.574 294.333 -7.72553 
174.575 294.357 -7.72494 
174.575 294.379 -7.72443 
174.576 294.397 -7.72398 
174.576 294.413 -7.72359 
174.576 294.427 -7.72326 
174.577 294.44 -7.72298 
174.577 294.45 -7.72272 
174.577 294.459 -7.72251 
174.577 294.467 -7.72233 
174.578 294.474 -7.72217 
174.578 294.48 -7.72204 
174.578 294.485 -7.72192 
174.578 294.49 -7.72182 
174.578 294.493 -7.72173 
174.578 294.497 -7.72164 
174.578 294.499 -7.72157 
174.578 294.502 -7.72149 
174.579 294.504 -7.72074 
174.212 293.382 -8.66609 
174.049 294.135 -8.18523 
174.072 294.345 -8.2074 
174.06 294.468 -8.20364 
176.58 290.284 -10.6577 
177.305 290.481 -10.6888 
177.392 290.496 -10.694 
177.442 290.499 -10.6971 
177.483 290.501 -10.7007 
177.521 290.502 -10.7047 
177.558 290.503 -10.7092 
177.847 290.504 -10.7221 
176.58 290.284 -10.6577 
176.568 289.689 -11.1411 
176.475 289.479 -11.5609 
176.361 289.417 -11.6964 
177.583 298.764 -10.5114 
176.914 299.105 -10.5447 
176.616 299.34 -10.4874 
176.496 299.584 -10.4783 
177.583 298.764 -10.5114 
178.579 299.097 -10.7144 
178.743 299.225 -10.7212 
198.801 280.005 -10.869 
197.9 279.975 -10.2267 
197.392 279.986 -10.2326 
197.096 280.003 -10.2222 
197.082 280.004 -10.2222 
197.08 280.004 -10.2222 
191.635 276.144 -15.1489 
191.136 276.039 -15.4899 
190.901 275.963 -15.723 
190.668 275.866 -15.7919 
190.537 275.729 -15.8822 
190.444 275.602 -15.9642 
190.323 275.497 -16.1337 
190.219 275.435 -16.7116 
190.026 275.155 -16.9776 
189.927 275.019 -17.1623 
189.521 274.899 -17.2979 
176.496 299.584 -10.4783 
176.319 299.713 -10.6862 
176.219 299.841 -10.708 
176.496 299.584 -10.4783 
176.628 299.878 -9.95077 
176.767 299.975 -9.79762 
177.013 299.995 -9.75063 
176.219 299.841 -10.708 
176.598 300.319 -10.7284 
176.576 300.557 -10.8154 
176.476 300.649 -10.8823 
176.219 299.841 -10.708 
175.66 299.525 -10.7194 
175.167 299.506 -10.7219 
168.464 292.346 -12.0971 
168.998 291.917 -12.2419 
169.059 291.576 -12.2239 
168.464 292.346 -12.0971 
168.079 292.497 -12.1068 
167.66 292.432 -12.1848 
167.397 292.375 -12.2203 
167.168 292.309 -12.2717 
166.694 291.948 -12.4712 
176.476 300.649 -10.8823 
176.207 300.506 -11.1358 
176.075 300.519 -11.2187 
175.957 300.629 -11.2206 
176.476 300.649 -10.8823 
176.57 301.052 -10.7269 
176.565 301.146 -10.7233 
176.561 301.217 -10.7259 
176.557 301.286 -10.7309 
176.554 301.366 -10.7372 
201.486 281.354 -10.4052 
201.6 281.373 -10.1103 
201.791 281.511 -9.93737 
201.486 281.354 -10.4052 
201.575 281.598 -11.1475 
201.574 281.494 -11.631 
201.579 281.504 -11.7193 
201.579 281.504 -11.7219 
201.579 281.504 -11.722 
166.694 291.948 -12.4712 
166.21 292.155 -12.2989 
166.021 292.304 -12.2561 
165.891 292.396 -12.2476 
165.773 292.497 -12.2428 
165.618 292.601 -12.2379 
165.437 292.686 -12.2377 
165.153 292.747 -12.2373 
164.879 293.048 -12.1188 
164.525 293.025 -11.9157 
166.694 291.948 -12.4712 
166.503 291.507 -12.745 
165.88 291.507 -12.9751 
176.554 301.366 -10.7372 
176.85 301.425 -10.7604 
177.108 301.502 -10.8127 
176.554 301.366 -10.7372 
176.337 301.402 -10.7265 
176.155 301.447 -10.723 
175.767 301.505 -10.7222 
201.791 281.511 -9.93737 
201.907 282.019 -9.29612 
202.514 281.998 -9.0279 
202.744 282.001 -8.79972 
202.957 282.005 -8.66361 
203.31 281.994 -8.60988 
203.543 281.985 -8.52769 
203.737 281.972 -8.29654 
204.04 281.981 -8.1641 
201.791 281.511 -9.93737 
201.82 282.489 -10.2137 
202.412 282.502 -10.2201 
201.791 281.511 -9.93737 
200.725 282.023 -9.70481 
200.322 282.009 -9.72139 
200.139 282.014 -9.72309 
199.868 281.993 -9.732 
199.59 281.963 -9.74394 
178.356 275.811 -6.39342 
178.07 275.126 -5.87819 
177.974 274.807 -5.76146 
177.813 274.572 -5.7131 
177.659 274.321 -5.71631 
177.519 273.87 -5.7112 
177.284 273.591 -5.69254 
176.687 272.886 -5.23523 
176.473 272.654 -5.21881 
176.163 272.241 -5.42927 
175.901 271.852 -5.27841 
177.899 275.734 -7.61729 
177.443 275.994 -7.72554 
177.077 276.145 -7.94882 
176.595 276.452 -8.05462 
176.233 276.563 -8.55262 
175.814 276.767 -8.68937 
174.895 276.782 -8.69784 
174.186 277.008 -8.72501 
173.926 277.043 -8.71732 
173.786 277.086 -8.70849 
173.588 277.161 -8.6981 
173.406 277.497 -8.67895 
172.933 277.502 -8.73122 
179.876 279.234 -6.46321 
180.143 279.38 -6.35307 
180.459 279.908 -6.75759 
180.637 280.181 -6.89608 
181.274 280.813 -6.91991 
179.079 273.083 -8.7222 
179.079 273.083 -8.7222 
179.079 273.085 -8.72206 
179.082 273.131 -8.7263 
179.038 273.482 -8.66672 
179.431 273.891 -8.87417 
179.433 274.104 -8.77266 
179.394 274.217 -8.72517 
179.065 274.578 -8.3681 
178.89 274.847 -8.28058 
178.665 274.909 -8.08053 
178.62 275.024 -7.97124 
178.6 275.178 -7.82653 
178.489 275.384 -7.7245 
177.899 275.734 -7.61729 
183.594 282.647 -7.76634 
183.381 282.556 -7.62818 
183.107 282.36 -7.59306 
182.85 282.136 -7.5183 
182.268 281.672 -7.35901 
181.724 281.074 -7.41057 
181.274 280.813 -6.91991 
181.011 291.33 -9.03253 
180.437 292.147 -9.43564 
180.12 292.599 -9.35345 
179.806 293.207 -9.36203 
179.554 293.485 -9.29619 
179.38 293.694 -9.22657 
179.276 293.89 -9.08723 
183.702 291.568 -8.45067 
183.623 290.963 -8.33487 
183.55 290.313 -8.19312 
183.719 289.895 -8.09001 
183.801 289.413 -8.02875 
184.322 288.54 -7.77666 
184.635 288.079 -8.04919 
185.115 287.35 -8.13858 
185.757 285.479 -8.23378 
189.198 282.619 -9.6011 
191.213 283.334 -10.0316 
191.836 283.518 -9.84658 
191.62 283.514 -9.09096 
191.609 283.517 -8.96504 
191.603 283.52 -8.8786 
191.597 283.522 -8.8121 
191.59 283.524 -8.75393 
191.579 283.855 -8.72874 
189.198 282.619 -9.6011 
187.65 283.437 -11.5584 
187.688 283.005 -12.0803 
187.543 282.619 -12.3143 
187.583 282.333 -12.5659 
189.198 282.619 -9.6011 
190.759 281.668 -9.40928 
191.647 281.187 -9.82909 
192.456 280.791 -9.73043 
193.094 280.513 -9.75095 
181.127 293.033 -7.76497 
180.658 292.632 -7.46038 
180.364 292.524 -6.92178 
180.197 292.511 -6.42976 
180.124 292.486 -6.25882 
180.102 292.475 -6.09744 
180.094 292.451 -5.87388 
180.083 292.417 -5.68705 
180.069 292.318 -5.44108 
179.972 292.106 -5.17992 
179.786 292.021 -4.87546 
179.598 291.97 -4.47777 
179.58 291.853 -4.1989 
179.586 291.655 -3.9324 
179.592 291.526 -3.53136 
179.598 291.465 -3.23095 
179.646 291.307 -2.97503 
179.715 291.132 -2.81087 
179.889 290.997 -2.69485 
180.041 290.856 -2.57518 
180.081 290.591 -2.42653 
180.069 290.266 -2.10817 
180.156 290.017 -1.76636 
182.912 294.066 -9.47086 
182.958 294.419 -10.147 
183.122 294.52 -10.6745 
183.123 294.52 -10.6685 
193.094 280.513 -9.75095 
193.259 281.459 -7.81128 
193.478 281.948 -7.61148 
193.965 282.037 -7.40901 
194.638 282.04 -8.0294 
194.896 282.022 -8.24877 
195.145 282 -8.36471 
184.96 293.628 -8.62399 
184.782 293.543 -8.53358 
184.318 293.318 -8.54195 
184.069 292.946 -8.36177 
183.875 292.111 -8.4347 
183.702 291.568 -8.45067 
194.417 279.476 -10.4066 
195.419 279.123 -10.41 
196.246 279.181 -10.4233 
197.023 278.884 -10.9422 
198.236 279.252 -11.0054 
198.513 279.382 -10.9619 
198.706 279.573 -10.9408 
198.808 279.824 -10.8917 
198.801 280.005 -10.869 
177.583 298.764 -10.5114 
177.906 298.2 -10.3751 
178.013 298.013 -10.2865 
178.044 297.852 -10.1816 
178.104 297.629 -9.98212 
178.328 297.535 -9.79389 
178.539 297.34 -9.71328 
178.614 297.137 -9.724 
178.825 296.801 -9.70734 
178.955 296.53 -9.71952 
179.12 296.029 -9.43371 
179.297 295.707 -9.53805 
179.452 295.538 -9.46817 
179.514 295.408 -9.34854 
179.562 295.072 -9.04894 
179.571 294.857 -9.12864 
179.573 294.707 -9.19332 
179.58 294.498 -9.21919 
179.276 293.89 -9.08723 
191.635 276.144 -15.1489 
191.601 276.602 -14.7911 
191.607 276.865 -14.6191 
191.648 276.97 -14.3884 
191.85 277.004 -14.2429 
191.975 277.137 -14.1336 
192.061 277.33 -13.9874 
192.09 277.431 -13.7162 
192.162 277.671 -13.3094 
192.422 277.925 -13.124 
192.485 278.209 -12.8784 
192.256 278.546 -12.4008 
192.091 279.397 -12.1169 
192.063 279.659 -11.6238 
193.094 280.513 -9.75095 
168.464 292.346 -12.0971 
168.592 292.392 -12.0237 
168.773 292.459 -11.8692 
169 292.523 -11.7534 
169.995 292.662 -11.4202 
170.425 292.611 -11.3958 
170.893 292.506 -11.3362 
172.027 292.501 -10.6828 
172.285 292.574 -10.4141 
172.434 292.713 -10.2531 
172.788 293.159 -9.88913 
173.192 293.21 -9.57551 
173.525 293.202 -9.41352 
173.856 293.208 -9.19437 
174.212 293.382 -8.66609 
201.486 281.354 -10.4052 
201.289 281.192 -10.371 
200.892 281.036 -10.4176 
199.791 280.519 -10.6191 
199.136 280.153 -11.0944 
198.801 280.005 -10.869 
194.087 273.203 -15.2301 
194.116 273.726 -15.2149 
194.076 273.933 -15.3671 
193.875 274.304 -15.6175 
193.649 274.528 -15.4621 
193.486 274.697 -15.475 
192.394 275.52 -15.2826 
192.135 275.819 -15.1591 
191.635 276.144 -15.1489 
201.791 281.511 -9.93737 
202.514 280.899 -9.63897 
202.831 280.986 -9.45209 
203.208 281.039 -9.39279 
203.562 281.127 -9.45413 
203.851 281.245 -9.51092 
204.293 281.229 -9.33717 

LINES 102 680
3 0 1 2 
4 3 4 5 6 
4 7 8 9 10 
5 11 12 13 14 15 
6 16 17 18 19 20 21 
5 22 23 24 25 26 
4 27 28 29 30 
3 31 32 33 
4 34 35 36 37 
3 38 39 40 
4 41 42 43 44 
4 45 46 47 48 
4 49 50 51 52 
3 53 54 55 
4 56 57 58 59 
6 60 61 62 63 64 65 
3 66 67 68 
4 69 70 71 72 
3 73 74 75 
3 76 77 78 
4 79 80 81 82 
3 83 84 85 
3 86 87 88 
7 89 90 91 92 93 94 95 
5 96 97 98 99 100 
3 101 102 103 
3 104 105 106 
6 107 108 109 110 111 112 
3 113 114 115 
4 116 117 118 119 
5 120 121 122 123 124 
3 125 126 127 
8 128 129 130 131 132 133 134 135 
5 136 137 138 139 140 
4 141 142 143 144 
3 145 146 147 
3 148 149 150 
3 151 152 153 
7 154 155 156 157 158 159 160 
5 161 162 163 164 165 
4 166 167 168 169 
3 170 171 172 
3 173 174 175 
4 176 177 178 179 
3 180 181 182 
4 183 184 185 186 
3 187 188 189 
3 190 191 192 
3 193 194 195 
4 196 197 198 199 
4 200 201 202 203 
3 204 205 206 
3 207 208 209 
7 210 211 212 213 214 215 216 
3 217 218 219 
5 220 221 222 223 224 
27 225 226 227 228 229 230 231 232 233 234 235 236 237 238 239 240 241 242 243 244 245 246 247 248 249 250 251 
4 252 253 254 255 
8 256 257 258 259 260 261 262 263 
4 264 265 266 267 
4 268 269 270 271 
3 272 273 274 
6 275 276 277 278 279 280 
11 281 282 283 284 285 286 287 288 289 290 291 
3 292 293 294 
4 295 296 297 298 
4 299 300 301 302 
3 303 304 305 
3 306 307 308 
6 309 310 311 312 313 314 
4 315 316 317 318 
6 319 320 321 322 323 324 
3 325 326 327 
6 328 329 330 331 332 333 
10 334 335 336 337 338 339 340 341 342 343 
3 344 345 346 
3 347 348 349 
4 350 351 352 353 
9 354 355 356 357 358 359 360 361 362 
3 363 364 365 
6 366 367 368 369 370 371 
11 372 373 374 375 376 377 378 379 380 381 382 
13 383 384 385 386 387 388 389 390 391 392 393 394 395 
5 396 397 398 399 400 
15 401 402 403 404 405 406 407 408 409 410 411 412 413 414 415 
7 416 417 418 419 420 421 422 
7 423 424 425 426 427 428 429 
9 430 431 432 433 434 435 436 437 438 
9 439 440 441 442 443 444 445 446 447 
5 448 449 450 451 452 
5 453 454 455 456 457 
23 458 459 460 461 462 463 464 465 466 467 468 469 470 471 472 473 474 475 476 477 478 479 480 
4 481 482 483 484 
7 485 486 487 488 489 490 491 
6 492 493 494 495 496 497 
9 498 499 500 501 502 503 504 505 506 
19 507 508 509 510 511 512 513 514 515 516 517 518 519 520 521 522 523 524 525 
15 526 527 528 529 530 531 532 533 534 535 536 537 538 539 540 
15 541 542 543 544 545 546 547 548 549 550 551 552 553 554 555 
6 556 557 558 559 560 561 
9 562 563 564 565 566 567 568 569 570 
7 571 572 573 574 575 576 577 

CELL_DATA 102
FIELD FieldData 1
Topology 2 102 vtkIdType
0 1 0 
2 1 3 
1 2 2 
-1 3 -1 
3 -1 4 
5 4 6 
5 -1 5 
7 7 8 
7 -1 8 
-1 9 -1 
10 11 10 
-1 11 12 
11 12 12 
13 12 14 
13 15 14 
-1 14 16 
15 17 15 
17 16 18 
17 47 17 
19 18 22 
18 23 19 
-1 20 -1 
21 24 22 
25 23 25 
23 26 24 
28 24 -1 
25 -1 26 
-1 26 -1 
27 30 27 
-1 28 -1 
28 32 29 
-1 29 -1 
30 -1 30 
-1 31 -1 
31 -1 32 
34 32 35 
33 -1 33 
-1 34 -1 
34 -1 35 
-1 35 48 
36 39 36 
-1 37 -1 
38 -1 39 
40 39 -1 
40 42 40 
-1 41 -1 
41 44 42 
-1 42 45 
43 46 43 
-1 44 -1 
44 -1 45 
-1 45 -1 
46 -1 46 
-1 46 -1 
4 49 6 
-1 8 9 
-1 50 10 
51 16 21 
20 52 19 
-1 19 -1 
19 27 22 
29 23 53 
27 33 31 
54 30 37 
36 55 38 
56 41 57 
43 58 -1 
59 46 -1 

POINT_DATA 578
FIELD FieldData 1
Radius 1 578 double
0 0.516295 0.516295 
0 0.324009 0.344868 
0.344868 0.615605 0.615605 
0.590889 0.590889 0.376629 
0.376629 0.364175 0.361885 
0.36877 0.0428617 0.0428617 
0.0245445 0.00354364 0.000485347 
6.40602e-05 0.421251 0.421251 
0.281255 0.282472 0.279607 
0.461903 0.461903 0.432763 
0.260374 0.752029 0.752029 
0.752029 0.58404 0.58404 
0.556467 0.556467 0.189294 
0.189294 0.165743 0.588943 
0.588943 0.609097 0.609097 
0.697208 0.697208 0.70679 
0.70679 0.395394 0.395394 
0.362445 0.335726 0.286122 
0.286122 0.202859 0.497838 
0.497838 0.355178 0.286071 
0.76366 0.76366 0.80876 
0.960479 0.890733 0.890733 
0.545219 0.545219 0.476416 
1.54321 1.54321 1.32036 
1.32036 0.117296 0.117296 
0.117296 1.77589 1.77589 
1.77589 1.37143 1.37143 
1.24606 1.24606 1.55985 
1.55985 1.55985 0.16491 
0.16491 0.113239 1.4613 
1.4613 1.224 1.02453 
1.11717 1.14062 1.14062 
0.594039 0.594039 0.487067 
0.502467 0.502467 1.4209 
1.4209 1.4209 1.03218 
1.03218 1.03218 0.358506 
0.358506 0.414501 0.486527 
0.48089 0.48089 1.54231 
1.54231 1.54231 0.53467 
0.53467 0.590734 0.590734 
0.846559 0.846559 0.809012 
0.762755 0.762755 0.56549 
0.56549 0.485327 0.107683 
0.107683 0.029824 0.00480652 
0.00209628 0.000884155 0.000370167 
0.000150906 0.790314 0.790314 
0.698609 0.732419 0.732419 
0.467071 0.467071 0.469824 
0.469824 0.471417 0.471417 
0.471417 0.497587 0.497587 
0.497587 0.815553 0.815553 
0.815553 0.40832 0.40832 
0.377959 0.289937 0.0832485 
0.00516148 0.000379562 0.454644 
0.454644 0.357437 0.0850001 
0.000199919 0.497306 0.497306 
0.414023 0.291146 0.445858 
0.445858 0.29596 1.32955 
1.32955 1.32955 0.495273 
0.495273 0.396059 0.225987 
0.230126 0.230126 0.134738 
0.731469 0.731469 0.746389 
0.746389 0.203495 0.203495 
0.191036 0.461366 0.461366 
0.417941 0.361766 0.361766 
0.374079 0.410406 0.410406 
0.35823 0.342576 0.080949 
0.080949 0.0436691 0.00689553 
0.477041 0.477041 0.393812 
0.810353 0.810353 0.810353 
0.574477 0.574477 0.543202 
0.55738 0.592077 0.599978 
0.599978 0.358949 0.358949 
0.2819 0.215655 0.215655 
0.11085 0.00337177 0.000134287 
0.113676 0.113676 0.0845684 
0.0668774 0.0576992 0.0500603 
0.043307 0.0374529 0.0323368 
0.0278825 0.0239964 0.0206135 
0.0176694 0.0151121 0.0128902 
0.0109575 0.00928824 0.00785093 
0.00661348 0.00556314 0.00468425 
0.00395542 0.00336986 0.00290589 
0.0025351 0.00225434 0.00192183 
0.211501 0.211501 0.151267 
0.102228 0.175867 0.175867 
0.188603 0.214512 0.233073 
0.249174 0.264354 0.211946 
0.52658 0.52658 0.501581 
0.501581 0.616437 0.616437 
0.623331 0.623331 0.246689 
0.246689 0.257838 0.407368 
0.407368 0.355942 0.141473 
0.00743676 0.000573985 0.46442 
0.46442 0.45045 0.435673 
0.463535 0.490322 0.503036 
0.464578 0.374135 0.41029 
0.360854 0.60781 0.60781 
0.60781 0.250308 0.250308 
0.222175 0.146372 0.424382 
0.424382 0.409944 0.409944 
0.395957 0.395957 0.321671 
0.222475 0.222475 0.151378 
0.475315 0.475315 0.470398 
0.469388 0.487784 0.487784 
0.210756 0.210756 0.210217 
0.17714 0.167527 0.167527 
0.192235 0.238269 0.278808 
0.278808 0.891577 0.891577 
0.891577 0.386098 0.386098 
0.283973 0.0402144 0.00125958 
5.91278e-05 0.269885 0.269885 
0.245168 0.241481 0.272633 
0.305229 0.35102 0.394766 
0.371144 0.262558 0.525173 
0.525173 0.380067 0.20827 
0.20827 0.162283 0.286864 
0.286864 0.301971 0.273938 
0.559126 0.559126 0.453892 
0.438945 0.431518 0.412201 
0.422778 0.428539 0.435658 
0.463493 0.463493 0.289778 
0.430611 0.430611 0.365748 
0.378222 0.371437 0.324388 
0.501161 0.501161 0.485992 
0.465489 0.473555 0.496508 
0.497884 0.451576 0.466171 
0.505172 0 0.55194 
0.55194 0.501635 0.479533 
0.526719 0.54713 0.57067 
0.462823 0.356131 0.37523 
0.395016 0.35781 0.238747 
0.706303 0.706303 0.614509 
0.621409 0.621409 5.74611e-05 
0.00112021 0.021656 0.202049 
0.297823 0.461181 0.442541 
0.427473 0.462587 0.45234 
0.449582 0.415757 0.399379 
0.404998 0.404998 0.741191 
0.741191 0.700859 0.664053 
0.753085 0.794948 0.794948 
0.710217 0.710217 0.651488 
0.65978 0.672946 0.745694 
0.745694 0.664015 0.664015 
0.688293 0.692169 0.727704 
0.840611 0.86113 1.00377 
1.00377 0.635845 0.635845 
0.561734 0.202164 0.21478 
0.24534 0.273433 0.296397 
0.145012 0.581738 0.581738 
0.448872 0.401403 0.332173 
1.15701 1.15701 1.18551 
1.53413 1.53413 0.625042 
0.625042 0.479313 0.43266 
0.387708 0.408318 0.431443 
0.457459 0.466111 0.483432 
0.493888 0.496182 0.453939 
0.449307 0.446796 0.432169 
0.382345 0.373074 0.429723 
0.469203 0.467599 0.473953 
0.473953 0.655052 0.655052 
0.648628 0.648628 0.686059 
0.686059 0.595576 0.543318 
0.458247 0.43733 0.43733 
0.586439 0.586439 0.672672 
0.606917 0.752685 0.752685 
0.926726 0.926726 0.870076 
0.797317 0.712284 0.727157 
0.779661 0.819228 0.819228 
0.518093 0.518093 0.492681 
0.445253 0.439437 0.456525 
0.451035 0.450692 0.447232 
0.468502 0.610309 0.529031 
0.507411 0.492161 0.48214 
0.444448 0.417207 0.418005 
0.418005 0.456853 0.456853 
0.444028 0.439451 0.443234 
0.411475 0.394905 0.440466 
0.487183 0.481324 0.502099 
0.591988 0.462509 0.480887 
0.480887 0.501536 0.501536 
0.462192 0.444674 0.587291 
0.574425 0.58578 0.544692 
0.560177 0.561911 0.62603 
0.598104 0.585847 0.587053 
0.587053 0.691178 0.691178 
0.685122 1.10274 1.07833 
1.07833 0.32516 0.421138 
0.398067 0.497157 0.478272 
0.477578 0.473286 0.495004 
0.495004 0.5095 0.5095 
0.479388 0.462061 0.468006 
0.551498 0.553656 
